{
  "project_info": {
    "project_number": "553831376631",
    "firebase_url": "https://boranuddin-fce3b.firebaseio.com",
    "project_id": "boranuddin-fce3b",
    "storage_bucket": "boranuddin-fce3b.appspot.com"
  },
  "client": [
    {
      "client_info": {
        "mobilesdk_app_id": "1:553831376631:android:734568549d5f1d11",
        "android_client_info": {
          "package_name": "com.example.boranuddin"
        }
      },
      "oauth_client": [
        {
          "client_id": "553831376631-den176e6n3ks0kq9gihhc1qffl0hgqsg.apps.googleusercontent.com",
          "client_type": 1,
          "android_info": {
            "package_name": "com.example.boranuddin",
            "certificate_hash": "68c3bcc4ff7eef1b3fb2ee9444ecb3ad24f10916"
          }
        },
        {
          "client_id": "553831376631-kfvkj0k53bu8hqn8q7a7qhgm3caarebk.apps.googleusercontent.com",
          "client_type": 3
        }
      ],
      "api_key": [
        {
          "current_key": "AIzaSyAGInnwMfO-6BJ5KjYlcj9mGDVboER4Ink"
        }
      ],
      "services": {
        "appinvite_service": {
          "other_platform_oauth_client": [
            {
              "client_id": "553831376631-kfvkj0k53bu8hqn8q7a7qhgm3caarebk.apps.googleusercontent.com",
              "client_type": 3
            }
          ]
        }
      }
    }
  ],
  "configuration_version": "1"
}